<?xml version="1.0" encoding="UTF-8" standalone="no"?>
<svg
   xmlns="http://www.w3.org/2000/svg"
   viewBox="0 0 338.4866 357">
  <g transform="translate(-56.513394,-57)">
    <path
       d="M 57,395.5 V 377 H 75.5 94 V 395.5 414 H 75.5 57 Z m 75,0 V 377 H 150.5 169 V 395.5 414 H 150.5 132 Z m 75,0 V 377 h 19 19 v 18.5 18.5 h -19 -19 z m 76,0 V 377 H 301.5 320 V 395.5 414 H 301.5 283 Z M 57,320 V 301 H 75.5 94 v 19 19 H 75.5 57 Z m 226,0 V 301 H 301.5 320 V 282.5 264 H 301.5 283 v -19 -19 h -19 -19 v 19 19 H 226 207 V 160.5 57 h 94 94 V 198 339 H 339 283 Z M 57,245 V 226 H 75.5 94 v 19 19 H 75.5 57 Z m 75,0 v -19 h 18.5 18.5 v 19 19 H 150.5 132 Z M 84.5,160 56.513394,132 H 75.256697 94 V 94.5 57 H 131.5 169 V 75.5 94 H 150.5 132 v 19 19 h 18.7433 18.74331 L 141.5,160 c -15.39263,15.4 -28.21763,28 -28.5,28 -0.28237,0 -13.107367,-12.6 -28.5,-28 z" fill="#fff" />
  </g>
</svg>
